House Pricing Prediction ‘AMES’ Dataset
…
## Classification Decision tree time: 262.027 sec elapsed

Evaluation of training error

# Show metrics
grid_fit %>% 
  unnest(.metrics)

## # A tibble: 500 × 10
##    splits             id    tree_depth min_n .metric  .estimator .estimate
##    <list>             <chr>      <int> <int> <chr>    <chr>          <dbl>
##  1 <split [1407/352]> Fold1          1     2 accuracy multiclass   0.00852
##  2 <split [1407/352]> Fold1          2     2 accuracy multiclass   0.00852
##  3 <split [1407/352]> Fold1          3     2 accuracy multiclass   0.00852
##  4 <split [1407/352]> Fold1          4     2 accuracy multiclass   0.00852
##  5 <split [1407/352]> Fold1          5     2 accuracy multiclass   0.00852
##  6 <split [1407/352]> Fold1          6     2 accuracy multiclass   0.00852
##  7 <split [1407/352]> Fold1          7     2 accuracy multiclass   0.00852
##  8 <split [1407/352]> Fold1          8     2 accuracy multiclass   0.00852
##  9 <split [1407/352]> Fold1          9     2 accuracy multiclass   0.00852
## 10 <split [1407/352]> Fold1         10     2 accuracy multiclass   0.00852
## # ℹ 490 more rows
## # ℹ 3 more variables: .config <chr>, .notes <list>, .predictions <list>

# Summarize metrics
grid_fit %>% 
  collect_metrics(summarize = TRUE)

## # A tibble: 100 × 8
##    tree_depth min_n .metric  .estimator   mean     n std_err .config            
##         <int> <int> <chr>    <chr>       <dbl> <int>   <dbl> <chr>              
##  1          1     2 accuracy multiclass 0.0108     5 0.00209 Preprocessor1_Mode…
##  2          2     2 accuracy multiclass 0.0108     5 0.00209 Preprocessor1_Mode…
##  3          3     2 accuracy multiclass 0.0108     5 0.00209 Preprocessor1_Mode…
##  4          4     2 accuracy multiclass 0.0108     5 0.00209 Preprocessor1_Mode…
##  5          5     2 accuracy multiclass 0.0108     5 0.00209 Preprocessor1_Mode…
##  6          6     2 accuracy multiclass 0.0108     5 0.00209 Preprocessor1_Mode…
##  7          7     2 accuracy multiclass 0.0108     5 0.00209 Preprocessor1_Mode…
##  8          8     2 accuracy multiclass 0.0108     5 0.00209 Preprocessor1_Mode…
##  9          9     2 accuracy multiclass 0.0108     5 0.00209 Preprocessor1_Mode…
## 10         10     2 accuracy multiclass 0.0108     5 0.00209 Preprocessor1_Mode…
## # ℹ 90 more rows
…
## Classification Random Forest time: 352.989 sec elapsed

Evaluation of training error

# Show metrics
grid_fit_rf %>% 
  unnest(.metrics)

## # A tibble: 27 × 11
##    splits             id     mtry trees min_n .metric  .estimator .estimate
##    <list>             <chr> <int> <int> <int> <chr>    <chr>          <dbl>
##  1 <split [1407/352]> Fold1     2    50     1 accuracy multiclass    0.0170
##  2 <split [1407/352]> Fold1    37    50     1 accuracy multiclass    0.0114
##  3 <split [1407/352]> Fold1    73    50     1 accuracy multiclass    0.0199
##  4 <split [1407/352]> Fold1     2   125     1 accuracy multiclass    0.0142
##  5 <split [1407/352]> Fold1    37   125     1 accuracy multiclass    0.0142
##  6 <split [1407/352]> Fold1    73   125     1 accuracy multiclass    0.0114
##  7 <split [1407/352]> Fold1     2   200     1 accuracy multiclass    0.0312
##  8 <split [1407/352]> Fold1    37   200     1 accuracy multiclass    0.0170
##  9 <split [1407/352]> Fold1    73   200     1 accuracy multiclass    0.0170
## 10 <split [1407/352]> Fold1     2    50     5 accuracy multiclass    0.0256
## # ℹ 17 more rows
## # ℹ 3 more variables: .config <chr>, .notes <list>, .predictions <list>

# Summarize metrics
grid_fit_rf %>% 
  collect_metrics(summarize = TRUE)

## # A tibble: 27 × 9
##     mtry trees min_n .metric  .estimator   mean     n std_err .config           
##    <int> <int> <int> <chr>    <chr>       <dbl> <int>   <dbl> <chr>             
##  1     2    50     1 accuracy multiclass 0.0170     1      NA Preprocessor1_Mod…
##  2    37    50     1 accuracy multiclass 0.0114     1      NA Preprocessor1_Mod…
##  3    73    50     1 accuracy multiclass 0.0199     1      NA Preprocessor1_Mod…
##  4     2   125     1 accuracy multiclass 0.0142     1      NA Preprocessor1_Mod…
##  5    37   125     1 accuracy multiclass 0.0142     1      NA Preprocessor1_Mod…
##  6    73   125     1 accuracy multiclass 0.0114     1      NA Preprocessor1_Mod…
##  7     2   200     1 accuracy multiclass 0.0312     1      NA Preprocessor1_Mod…
##  8    37   200     1 accuracy multiclass 0.0170     1      NA Preprocessor1_Mod…
##  9    73   200     1 accuracy multiclass 0.0170     1      NA Preprocessor1_Mod…
## 10     2    50     5 accuracy multiclass 0.0256     1      NA Preprocessor1_Mod…
## # ℹ 17 more rows
…
